…
Review column names in pols month df, and separate date variable into
month, year, and day.

``` r
names(pols_month_df)
```

    ## [1] "mon"      "prez_gop" "gov_gop"  "sen_gop"  "rep_gop"  "prez_dem" "gov_dem" 
    ## [8] "sen_dem"  "rep_dem"

``` r
separate(pols_month_df, col = mon, into = c("Year", "Month", "Day"), sep = "-")
```

    ## # A tibble: 822 × 11
    ##    Year  Month Day   prez_gop gov_gop sen_gop rep_gop prez_dem gov_dem sen_dem
    ##    <chr> <chr> <chr>    <dbl>   <dbl>   <dbl>   <dbl>    <dbl>   <dbl>   <dbl>
    ##  1 1947  01    15           0      23      51     253        1      23      45
    ##  2 1947  02    15           0      23      51     253        1      23      45
    ##  3 1947  03    15           0      23      51     253        1      23      45
    ##  4 1947  04    15           0      23      51     253        1      23      45
    ##  5 1947  05    15           0      23      51     253        1      23      45
    ##  6 1947  06    15           0      23      51     253        1      23      45
    ##  7 1947  07    15           0      23      51     253        1      23      45
    ##  8 1947  08    15           0      23      51     253        1      23      45
    ##  9 1947  09    15           0      23      51     253        1      23      45
    ## 10 1947  10    15           0      23      51     253        1      23      45
    ## # ℹ 812 more rows
    ## # ℹ 1 more variable: rep_dem <dbl>
…
